<svg width="27" height="34" viewBox="0 0 27 34" fill="none" xmlns="http://www.w3.org/2000/svg">
<path d="M21.6347 33.9997C20.458 33.9997 18.8051 33.4639 16.33 31.7229C13.3202 29.5979 10.9922 27.636 7.99868 23.877C5.11247 20.2455 3.70794 17.8943 1.74221 13.3908C-0.478516 8.30587 -0.0999567 5.64048 0.32321 4.50131C0.827152 3.13978 1.57101 2.32544 2.53248 1.51717C3.07859 1.06669 3.65651 0.680532 4.2589 0.363586C4.31918 0.330952 4.37524 0.299835 4.42528 0.271755C4.72366 0.102511 5.17577 -0.153251 5.74843 0.119967C6.1306 0.300594 6.47179 0.670197 7.00587 1.33427C8.10116 2.69428 9.59792 5.7232 10.1501 7.21072C10.5208 8.21328 10.7661 8.87507 10.7668 9.61731C10.7668 10.4863 10.4195 11.1564 9.99818 11.8797C9.91921 12.0156 9.84085 12.1453 9.76489 12.2713C9.30616 13.0303 9.20549 13.2496 9.2718 13.6412C9.40623 14.4282 10.4087 16.7711 12.0561 18.8407C13.7036 20.9103 15.5108 22.0927 16.1383 22.2612C16.4626 22.3485 16.6405 22.2164 17.2625 21.6184C17.3518 21.5326 17.4434 21.4438 17.5392 21.355C18.1818 20.7532 18.6894 20.3274 19.3633 20.3274H19.3669C19.9535 20.3274 20.4556 20.6477 21.2875 21.1759C22.3725 21.8651 24.8506 23.7252 25.9375 25.1057C26.4661 25.7766 26.7609 26.2047 26.905 26.6851C27.122 27.4083 26.9176 27.9753 26.7844 28.3547C26.7621 28.4177 26.7374 28.4868 26.7115 28.5634C26.4577 29.3205 26.1492 30.0466 25.7898 30.7325C25.149 31.9392 24.4998 32.8734 23.4159 33.5087C22.8594 33.8401 22.2503 34.008 21.6347 33.9997Z" fill="#EE8912"/>
</svg>
