<svg width="48" height="45" viewBox="0 0 48 45" fill="none" xmlns="http://www.w3.org/2000/svg">
<g filter="url(#filter0_d)">
<path d="M24 3C26.2543 3 28.4163 3.81652 30.0104 5.26992C31.6045 6.72333 32.5 8.69457 32.5 10.75C32.5 12.8054 31.6045 14.7767 30.0104 16.2301C28.4163 17.6835 26.2543 18.5 24 18.5C21.7457 18.5 19.5837 17.6835 17.9896 16.2301C16.3955 14.7767 15.5 12.8054 15.5 10.75C15.5 8.69457 16.3955 6.72333 17.9896 5.26992C19.5837 3.81652 21.7457 3 24 3V3ZM24 22.375C33.3925 22.375 41 25.8431 41 30.125V34H7V30.125C7 25.8431 14.6075 22.375 24 22.375Z" fill="black"/>
</g>
<defs>
<filter id="filter0_d" x="0" y="0" width="48" height="45" filterUnits="userSpaceOnUse" color-interpolation-filters="sRGB">
<feFlood flood-opacity="0" result="BackgroundImageFix"/>
<feColorMatrix in="SourceAlpha" type="matrix" values="0 0 0 0 0 0 0 0 0 0 0 0 0 0 0 0 0 0 127 0"/>
<feOffset dy="4"/>
<feGaussianBlur stdDeviation="3.5"/>
<feColorMatrix type="matrix" values="0 0 0 0 0 0 0 0 0 0 0 0 0 0 0 0 0 0 0.76 0"/>
<feBlend mode="normal" in2="BackgroundImageFix" result="effect1_dropShadow"/>
<feBlend mode="normal" in="SourceGraphic" in2="effect1_dropShadow" result="shape"/>
</filter>
</defs>
</svg>
